%YAML 1.1
%TAG !u! tag:unity3d.com,2011:
--- !u!74 &7400000
AnimationClip:
  m_ObjectHideFlags: 0
  m_CorrespondingSourceObject: {fileID: 0}
  m_PrefabInstance: {fileID: 0}
  m_PrefabAsset: {fileID: 0}
  m_Name: WalkLeft
  serializedVersion: 6
  m_Legacy: 0
  m_Compressed: 0
  m_UseHighQualityCurve: 1
  m_RotationCurves: []
  m_CompressedRotationCurves: []
  m_EulerCurves: []
  m_PositionCurves: []
  m_ScaleCurves: []
  m_FloatCurves: []
  m_PPtrCurves:
  - curve:
    - time: 0
      value: {fileID: 21300000, guid: b1abf52e03006884299b316de2d84296, type: 3}
    - time: 0.083333336
      value: {fileID: 21300000, guid: d434ebe471a87cd44b4f22d91d9e864f, type: 3}
    - time: 0.16666667
      value: {fileID: 21300000, guid: 84930de756936d64994298e945c77554, type: 3}
    - time: 0.25
      value: {fileID: 21300000, guid: ec99d5c8f9f3b2641b2fd40fedeacdb5, type: 3}
    - time: 0.33333334
      value: {fileID: 21300000, guid: 79f03b1d68c18e543bd0e296d7418485, type: 3}
    - time: 0.41666666
      value: {fileID: 21300000, guid: 7f45f300d98f918478d913f589a1c5fd, type: 3}
    - time: 0.5
      value: {fileID: 21300000, guid: b496c9d5f5ae15f499bce5a3e98e0733, type: 3}
    - time: 0.5833333
      value: {fileID: 21300000, guid: a47490c3c2480f149b5f63076ef9e02b, type: 3}
    - time: 0.6666667
      value: {fileID: 21300000, guid: 3e178f0d77ebcee4ba77302c6d0dec79, type: 3}
    attribute: m_Sprite
    path: 
    classID: 212
    script: {fileID: 0}
  m_SampleRate: 12
  m_WrapMode: 0
  m_Bounds:
    m_Center: {x: 0, y: 0, z: 0}
    m_Extent: {x: 0, y: 0, z: 0}
  m_ClipBindingConstant:
    genericBindings:
    - serializedVersion: 2
      path: 0
      attribute: 0
      script: {fileID: 0}
      typeID: 212
      customType: 23
      isPPtrCurve: 1
    pptrCurveMapping:
    - {fileID: 21300000, guid: b1abf52e03006884299b316de2d84296, type: 3}
    - {fileID: 21300000, guid: d434ebe471a87cd44b4f22d91d9e864f, type: 3}
    - {fileID: 21300000, guid: 84930de756936d64994298e945c77554, type: 3}
    - {fileID: 21300000, guid: ec99d5c8f9f3b2641b2fd40fedeacdb5, type: 3}
    - {fileID: 21300000, guid: 79f03b1d68c18e543bd0e296d7418485, type: 3}
    - {fileID: 21300000, guid: 7f45f300d98f918478d913f589a1c5fd, type: 3}
    - {fileID: 21300000, guid: b496c9d5f5ae15f499bce5a3e98e0733, type: 3}
    - {fileID: 21300000, guid: a47490c3c2480f149b5f63076ef9e02b, type: 3}
    - {fileID: 21300000, guid: 3e178f0d77ebcee4ba77302c6d0dec79, type: 3}
  m_AnimationClipSettings:
    serializedVersion: 2
    m_AdditiveReferencePoseClip: {fileID: 0}
    m_AdditiveReferencePoseTime: 0
    m_StartTime: 0
    m_StopTime: 0.75
    m_OrientationOffsetY: 0
    m_Level: 0
    m_CycleOffset: 0
    m_HasAdditiveReferencePose: 0
    m_LoopTime: 1
    m_LoopBlend: 0
    m_LoopBlendOrientation: 0
    m_LoopBlendPositionY: 0
    m_LoopBlendPositionXZ: 0
    m_KeepOriginalOrientation: 0
    m_KeepOriginalPositionY: 1
    m_KeepOriginalPositionXZ: 0
    m_HeightFromFeet: 0
    m_Mirror: 0
  m_EditorCurves: []
  m_EulerEditorCurves: []
  m_HasGenericRootTransform: 0
  m_HasMotionFloatCurves: 0
  m_Events: []
